Feature	Data
F1	7.55336954913978
F1	7.57642724427967
F1	3.17970284860046
F1	-0.295080205413019
F1	3.94559884795642
F1	3.32622536140661
F1	3.90954275366748
F1	5.36279503589416
F1	4.85800931312361
F1	4.81396351702498
F1	5.00896357214866
F1	4.40396683627113
F1	5.76096132539723
F1	4.67960296569869
F1	3.68395297070371
F1	2.7822311289181
F1	-0.711721408673066
F1	7.50749887381258
F1	5.93646989863147
F1	5.70895739154932
F1	3.29974411901456
F1	6.32560346793479
F1	4.09472380878387
F1	6.15502556819107
F1	3.86798464909958
F2	8.97626507364526
F2	1.4254656656545
F2	7.34395875076934
F2	6.63895065491397
F2	5.73847135664462
F2	-0.540299727636918
F2	4.8414795834575
F2	5.0246797716883
F2	6.71923523232454
F2	7.8943425110894
F2	3.0905717210796
F2	2.44441083980136
F2	3.27252593521065
F2	3.97497937862188
F2	4.08410746557574
F2	5.27098835933054
F2	6.93507081056269
F2	3.57367464725733
F2	7.46536317082276
F2	5.14631367258044
F2	4.59545842919946
F2	9.03789608515169
F2	5.50902081419287
F2	5.99179869796226
F2	5.1521852514424
F3	4.90220605888468
F3	4.49261483440479
F3	4.58210364985183
F3	6.28103806163638
F3	4.93769974822977
F3	6.00356367172845
F3	4.98939548834284
F3	7.20112852000159
F3	4.19204203398688
F3	4.07408603571
F3	8.63646078678087
F3	6.15402223900806
F3	6.26134479030843
F3	6.14814924494285
F3	4.8651541284631
F3	4.79307474315284
F3	5.9838701700207
F3	4.02310872071699
F3	6.51235341396313
F3	3.08310929028329
F3	2.32620093880434
F3	2.6638199992845
F3	4.38882043310925
F3	4.67201605058289
F3	3.62384998217828
F4	4.01265055889596
F4	2.84065252443146
F4	5.94627743735677
F4	4.59144131459003
F4	4.14415164720346
F4	8.41254966220541
F4	4.68261295306926
F4	4.19617817668057
F4	9.5108027367239
F4	6.53341640403705
F4	1.9868376415918
F4	5.31963576540875
F4	4.56467364329117
F4	3.29418346886813
F4	4.55721445320723
F4	7.39590882199409
F4	3.06207559397552
F4	6.95776256979485
F4	2.18571023058225
F4	6.15406109590396
F4	2.12416295179318
F4	3.40777868880441
F4	4.75040893120737
F4	4.00915259140794
F4	3.70866824123551