Feature	Data
F1	5.20610308304657
F2	7.10500892837036
F3	5.34201545800163
F4	6.24088814793899
F5	3.64368866995087
F6	7.96559601402802
F7	4.44351287177096
F8	4.41351683844305
F9	7.4472938348853
F10	5.26441548787991
F11	3.52551089892159
F12	3.49197734175455
F13	6.23635928690516
F14	5.65082306517032
F15	9.96333655289568
F16	7.25794837485855
F17	5.28436505738075
F18	7.0005124245319
F19	4.94523486962091
F20	4.82727670255157
F21	6.28016745976521
F22	5.2934254416103
F23	-1.12839782496686
F24	5.79469839791764
F25	7.7017748476197
F26	5.5239147243509
F27	1.91234248890991
F28	3.53543324527392
F29	4.87063479938717
F30	5.05469935152602
F31	4.38109406237348
F32	4.82584951404822
F33	1.95242444971647
F34	5.96767781207812
F35	5.51960750582703
F36	6.20156070426459
F37	2.61201225263941
F38	9.00261405785602
F39	10.0647485813811
F40	2.80178339261031
F41	7.47351452611862
F42	5.77462940942331
F43	5.83156973376559
F44	4.63348104301409
F45	5.05163899438719
F46	3.59760670517943
F47	3.27053644177036
F48	5.75939284297691
F49	5.99379253901345
F50	4.02925955113687
F51	3.2638934583676
F52	7.32986891568189
F53	3.19339221031022
F54	4.7234051819175
F55	3.75602027312272
F56	3.05786363972357
F57	6.58195766781403
F58	2.90523859906073
F59	7.25251052625913
F60	5.85902195513767
F61	7.95236995758467
F62	4.55190498617535
F63	7.8791538129132
F64	4.60936254379531
F65	3.89370527736283
F66	8.52477417135138
F67	4.52375975573699
F68	8.83719620493188
F69	2.11301158812659
F70	-0.0159666483541718
F71	3.17224292321607
F72	4.46679805437445
F73	5.93989862240458
F74	2.94555372659246
F75	2.95696962759468
F76	6.00134716251647
F77	6.72485090115677
F78	3.36867096851013
F79	1.44182772821829
F80	1.07860025288775
F81	6.82828895919607
F82	4.17615037192911
F83	6.15818331929138
F84	2.74836112219249
F85	4.28262952197728
F86	3.59728941800679
F87	4.20721780606595
F88	6.85797391004679
F89	4.73616206660366
F90	6.94938719342734
F91	5.48132026146742
F92	3.80213440068452
F93	6.33512691904472
F94	3.82801087123141
F95	7.6367332742729
F96	6.20055411362351
F97	3.76517718569227
F98	2.76519934167524
F99	5.32401196073767
F100	4.57529810966524
