CaseControl	
GSM475793	tumor
GSM475679	tumor
GSM475660	healthy
GSM475680	healthy
GSM475685	tumor
GSM475713	tumor
GSM475764	healthy
GSM475801	tumor
GSM475743	healthy
GSM475714	healthy
GSM475798	healthy
GSM475687	tumor
GSM475725	healthy
GSM475720	tumor
GSM475758	tumor
GSM475802	tumor
GSM475661	tumor
GSM475715	tumor
GSM475767	healthy
GSM475704	healthy
GSM475804	tumor
GSM475791	tumor
GSM475697	healthy
GSM475730	tumor
GSM475795	tumor
GSM475769	tumor
GSM475755	healthy
GSM475737	tumor
GSM475777	tumor
GSM475756	tumor
GSM475788	tumor
GSM475707	healthy
GSM475776	tumor
GSM475657	healthy
GSM475670	tumor
GSM475684	healthy
GSM475701	tumor
GSM475735	tumor
GSM475760	tumor
GSM475700	tumor
GSM475717	tumor
GSM475722	tumor
GSM475752	healthy
GSM475792	tumor
GSM475671	healthy
GSM475750	healthy
GSM475688	healthy
GSM475797	tumor
GSM475761	tumor
GSM475692	tumor
GSM475742	healthy
GSM475675	healthy
GSM475665	healthy
GSM475807	healthy
GSM475786	healthy
GSM475744	tumor
GSM475678	healthy
GSM475751	tumor
GSM475796	tumor
GSM475749	healthy
GSM475785	tumor
GSM475702	healthy
GSM475772	tumor
GSM475683	tumor
GSM475727	tumor
GSM475691	tumor
GSM475754	healthy
GSM475789	tumor
GSM475676	tumor
GSM475753	tumor
GSM475775	healthy
GSM475794	tumor
GSM475778	tumor
GSM475736	healthy
GSM475673	healthy
GSM475771	healthy
GSM475672	tumor
GSM475782	tumor
GSM475686	healthy
GSM475656	tumor
GSM475689	tumor
GSM475732	healthy
GSM475718	healthy
GSM475710	tumor
GSM475662	tumor
GSM475741	tumor
GSM475768	tumor
GSM475699	healthy
GSM475763	tumor
GSM475693	healthy
GSM475746	healthy
GSM475787	tumor
GSM475694	tumor
GSM475729	healthy
GSM475809	healthy
GSM475659	healthy
GSM475695	healthy
GSM475723	healthy
GSM475666	healthy
GSM475783	healthy
GSM475677	tumor
GSM475800	healthy
GSM475738	healthy
GSM475745	healthy
GSM475696	tumor
GSM475803	tumor
GSM475711	healthy
GSM475773	tumor
GSM475706	tumor
GSM475724	tumor
GSM475667	healthy
GSM475774	tumor
GSM475765	tumor
GSM475766	healthy
GSM475806	tumor
GSM475781	healthy
GSM475799	tumor
GSM475668	tumor
GSM475759	tumor
GSM475716	healthy
GSM475747	tumor
GSM475674	tumor
GSM475698	tumor
GSM475731	tumor
GSM475779	tumor
GSM475733	tumor
GSM475762	tumor
GSM475682	healthy
GSM475757	healthy
GSM475669	healthy
GSM475709	tumor
GSM475690	healthy
GSM475708	tumor
GSM475811	healthy
GSM475728	tumor
GSM475719	tumor
GSM475734	healthy
GSM475721	healthy
GSM475658	healthy
GSM475681	tumor
GSM475663	healthy
GSM475784	tumor
GSM475805	tumor
GSM475810	tumor
GSM475664	tumor
GSM475780	tumor
GSM475739	tumor
GSM475748	tumor
GSM475705	healthy
GSM475703	tumor
GSM475808	tumor
GSM475726	healthy
GSM475740	healthy
GSM475790	healthy
GSM475770	tumor
GSM475712	tumor